0, 7, 8
1, 4, 1
1, 6, 4       
1, 8, 3
2, 0, 4        
2, 1, 3
2, 7, 6
2, 8, 2
3, 0, 8
3, 4, 4
3, 6, 9
4, 1, 2 
4, 2, 4
4, 5, 3
4, 6, 8
5, 2, 9
5, 4, 8        
5, 7, 4
5, 8, 5
6, 0, 7 
6, 1, 1
6, 7, 9
6, 8, 4
7, 0, 2
7, 2, 3 
7, 4, 6
8, 3, 9
8, 6, 3
